Why Ecology Is Not Medicine: The Structural Mismatch in Evidence Synthesis
…
Code

simulate_world <- function(k = 30, mu = 0.3, tau = 0.1, vi_range = c(0.02, 0.15), label = "World") {
  vi <- runif(k, min = vi_range[1], max = vi_range[2]) # sampling variances
  theta_i <- rnorm(k, mean = mu, sd = tau) # true study effects (heterogeneity)
  yi <- rnorm(k, mean = theta_i, sd = sqrt(vi)) # observed effects

  tibble(world = label, study = paste0("Study ", seq_len(k)), yi = yi, vi = vi)
}

dat <- bind_rows(simulate_world(k = 30, mu = 0.3, tau = 0.08, label = "Medical-like (low heterogeneity)"), simulate_world(k = 30, mu = 0.3, tau = 0.45, label = "Ecological (high heterogeneity)"))

dat

# A tibble: 60 × 4
   world                            study        yi     vi
   <chr>                            <chr>     <dbl>  <dbl>
 1 Medical-like (low heterogeneity) Study 1   0.131 0.0545
 2 Medical-like (low heterogeneity) Study 2   0.394 0.0684
 3 Medical-like (low heterogeneity) Study 3   0.612 0.0945
 4 Medical-like (low heterogeneity) Study 4   0.324 0.138 
 5 Medical-like (low heterogeneity) Study 5   0.537 0.0462
 6 Medical-like (low heterogeneity) Study 6   0.521 0.137 
 7 Medical-like (low heterogeneity) Study 7   0.131 0.143 
 8 Medical-like (low heterogeneity) Study 8   0.417 0.106 
 9 Medical-like (low heterogeneity) Study 9  -0.219 0.102 
10 Medical-like (low heterogeneity) Study 10  0.590 0.0280
# ℹ 50 more rows
…
